epochs,training_acc,testing_acc
110,0.58,0.75
120,0.6,0.83
130,0.62,0.67
140,0.66,0.75
150,0.71,0.58
160,0.69,1.0
170,0.7,0.75
180,0.72,0.75
190,0.69,0.75
200,0.71,0.83
210,0.74,0.92
220,0.71,0.83
230,0.73,0.75
240,0.74,0.83
250,0.72,0.75
260,0.73,0.92
270,0.72,0.5
280,0.75,0.75
290,0.75,0.75
300,0.75,1.0
310,0.77,0.83
320,0.77,0.83
330,0.71,0.83
340,0.75,0.5
