hug/hug_3_0_50 0
hug/hug_4_0_57 0
hug/hug_2_0_14 0
hug/hug_2_1_42 0
hug/hug_3_1_21 0
hug/hug_1_1_37 0

push/push_3_0_13 1
push/push_4_0_19 1
push/push_4_0_21 1
push/push_4_0_47 1
push/push_3_0_80 1
push/push_3_0_77 1

drink/drink_1_1_2 2
drink/drink_1_0_4 2
drink/drink_2_0_39 2
drink/drink_4_1_24 2
drink/drink_2_0_9 2
drink/drink_3_1_18 2

companion/companion_3_0_37 3
companion/companion_2_0_23 3
companion/companion_2_0_71 3
companion/companion_3_0_35 3
companion/companion_4_0_49 3
companion/companion_3_0_32 3

point/point_2_0_66 4
point/point_4_0_83 4
point/point_4_0_129 4
point/point_4_0_46 4
point/point_3_0_38 4
point/point_3_0_34 4

falldown/falldown_3_0_78 5
falldown/falldown_1_0_3 5
falldown/falldown_1_0_2 5
falldown/falldown_4_1_54 5
falldown/falldown_4_1_27 5
falldown/falldown_1_1_34 5

run/run_3_1_73 6
run/run_3_1_43 6
run/run_2_0_34 6
run/run_2_0_66 6
run/run_2_0_70 6
run/run_4_1_52 6

punch/fight_2_0_266 7
punch/fight_2_0_55 7
punch/fight_1_0_148 7
punch/fight_4_1_215 7
punch/fight_1_0_3 7
punch/fight_4_1_338 7

eat/eat_4_0_16 8
eat/eat_2_1_22 8
eat/eat_3_1_13 8
eat/eat_2_0_23 8
eat/eat_4_0_17 8
eat/eat_3_0_11 8

pick/pick_2_1_44 9
pick/pick_1_1_34 9
pick/pick_1_1_32 9
pick/pick_4_1_31 9
pick/pick_2_1_39 9
pick/pick_4_1_30 9

call/call_1_2_4 10
call/call_4_1_38 10
call/call_3_1_13 10
call/call_2_2_7 10
call/call_3_1_15 10
call/call_3_2_14 10

stand/stand_2_1_7 11
stand/stand_4_1_47 11
stand/stand_2_1_11 11
stand/stand_3_1_44 11
stand/stand_4_0_23 11
stand/stand_3_1_14 11

sit/sit_3_0_43 12
sit/sit_4_1_47 12
sit/sit_1_1_25 12
sit/sit_3_0_15 12
sit/sit_3_0_18 12
sit/sit_2_0_10 12
